{
  "project_info": {
    "project_number": "962014045966",
    "firebase_url": "https://inappmessaging-5bf41.firebaseio.com",
    "project_id": "inappmessaging-5bf41",
    "storage_bucket": "inappmessaging-5bf41.appspot.com"
  },
  "client": [
    {
      "client_info": {
        "mobilesdk_app_id": "1:962014045966:android:f9366be7d6b70ed3",
        "android_client_info": {
          "package_name": "com.app.inappmessaging"
        }
      },
      "oauth_client": [
        {
          "client_id": "962014045966-iahksn3eqlhp0ojj9ricnsvual06o979.apps.googleusercontent.com",
          "client_type": 1,
          "android_info": {
            "package_name": "com.app.inappmessaging",
            "certificate_hash": "00bb7a60643b1accad0150485f4506b36402d377"
          }
        },
        {
          "client_id": "962014045966-dc8c6ij4t2o35gmbcqgqesopklgkrilb.apps.googleusercontent.com",
          "client_type": 3
        }
      ],
      "api_key": [
        {
          "current_key": "AIzaSyBnOGeVWDr7aC-5XA7MY1-1spMoImj8GO4"
        }
      ],
      "services": {
        "analytics_service": {
          "status": 1
        },
        "appinvite_service": {
          "status": 2,
          "other_platform_oauth_client": [
            {
              "client_id": "962014045966-dc8c6ij4t2o35gmbcqgqesopklgkrilb.apps.googleusercontent.com",
              "client_type": 3
            }
          ]
        },
        "ads_service": {
          "status": 2
        }
      }
    }
  ],
  "configuration_version": "1"
}